[
  {
    "articles": {
      "snows": {
        "snow1": {
          "id": 1,
          "marque": "Burton",
          "modele": "Custum Flying",
          "taille": 160,
          "prix": 350,
          "Quantité": 15,
          "dispo": true,
          "photo": "view/content/image-snows/burton-custom-flying-v-snowboard-2017-148.jpg"
        },
        "snow2": {
          "id": 2,
          "marque": "Burton",
          "modele": "Talent Scout",
          "taille": 160,
          "prix": 300,
          "Quantité": 4,
          "dispo": true,
          "photo": "view/content/image-snows/burton-talent-scout-snowboard-women-s-2017-138.jpg"
        },
        "snow3": {
          "id": 3,
          "marque": "Nidecker",
          "modele": "Tech Cold Brew",
          "taille": 180,
          "prix": 800,
          "Quantité": 10,
          "dispo": true,
          "photo": "view/content/image-snows/salomon-lotus-snowboard-women-s-2018-135.jpg"
        },
        "snow4": {
          "id": 4,
          "marque": "K2",
          "modele": "Rome Artifact Rocker",
          "taille": 1180,
          "prix": 560,
          "Quantité": 0,
          "dispo": false,
          "photo": "view/content/image-snows/rome-artifact-rocker-snowboard-2016-147.jpg"
        },
        "snow5": {
          "id": 5,
          "marque": "Rome",
          "modele": "S153CM",
          "taille": 160,
          "prix": 350,
          "Quantité": 4,
          "dispo": true,
          "photo": "view/content/image-snows/S153CM.jpg"
        }
      }
    },
    "autres": [
      {
        "details": {
          "noms": [
            {
              "id": 16447,
              "name": "Rahul Roy"
            },
            {
              "id": 12633,
              "name": "Sijal Thomas"
            },
            {
              "id": 16446,
              "name": "Mohammed Reza"
            },
            {
              "id": 16509,
              "name": "Asif Khan"
            },
            {
              "id": 12633,
              "name": "Koyel Dijesh"
            },
            {
              "id": 16468,
              "name": "Shahrook"
            },
            {
              "id": 64691,
              "name": "Shafiq"
            },
            {
              "id": 6518,
              "name": "Ubaidulah"
            }
          ]
        }
      }
    ]
  }
]