{
  "person": [
    {
      "username": "John",
      "password": "Doe",
      "photo": "Image/photos_personnes/personne0.jpg"
    },
    {
      "username": "Anna",
      "password": "Smith",
      "photo": "Image/photos_personnes/personne2.jpg"
    },
    {
      "username": "Peter",
      "password": "Jones",
      "photo": "Image/photos_personnes/personne3.jpg"
    }
  ]
}